<?xml version="1.0" encoding="UTF-8" standalone="no"?>
<svg
   xmlns:dc="http://purl.org/dc/elements/1.1/"
   xmlns:cc="http://creativecommons.org/ns#"
   xmlns:rdf="http://www.w3.org/1999/02/22-rdf-syntax-ns#"
   xmlns:svg="http://www.w3.org/2000/svg"
   xmlns="http://www.w3.org/2000/svg"
   xmlns:sodipodi="http://sodipodi.sourceforge.net/DTD/sodipodi-0.dtd"
   xmlns:inkscape="http://www.inkscape.org/namespaces/inkscape"
   sodipodi:docname="Subduct.EW.svg"
   inkscape:version="1.0 (1.0+r73+1)"
   id="svg8"
   version="1.1"
   viewBox="0 0 2000 660"
   height="660mm"
   width="2000mm">
  <defs
     id="defs2" />
  <sodipodi:namedview
     inkscape:window-maximized="1"
     inkscape:window-y="27"
     inkscape:window-x="67"
     inkscape:window-height="1385"
     inkscape:window-width="2493"
     inkscape:guide-bbox="true"
     showguides="true"
     showgrid="false"
     inkscape:document-rotation="0"
     inkscape:current-layer="layer2"
     inkscape:document-units="mm"
     inkscape:cy="682.93989"
     inkscape:cx="3422.5929"
     inkscape:zoom="0.7"
     inkscape:pageshadow="2"
     inkscape:pageopacity="0.0"
     borderopacity="1.0"
     bordercolor="#666666"
     pagecolor="#ffffff"
     id="base"
     inkscape:snap-global="true">
    <sodipodi:guide
       inkscape:color="rgb(0,0,255)"
       inkscape:locked="false"
       inkscape:label=""
       id="guide846"
       orientation="0,1"
       position="-2.2128057,659.99999" />
    <sodipodi:guide
       inkscape:color="rgb(0,0,255)"
       inkscape:locked="false"
       inkscape:label=""
       id="guide848"
       orientation="0,1"
       position="-138.98015,559.99999" />
    <sodipodi:guide
       position="967.5157,589.99999"
       orientation="0,1"
       id="guide849"
       inkscape:label=""
       inkscape:locked="false"
       inkscape:color="rgb(0,0,255)" />
    <sodipodi:guide
       position="969.99998,768.41771"
       orientation="-1,0"
       id="guide864"
       inkscape:label=""
       inkscape:locked="false"
       inkscape:color="rgb(0,0,255)" />
  </sodipodi:namedview>
  <metadata
     id="metadata5">
    <rdf:RDF>
      <cc:Work
         rdf:about="">
        <dc:format>image/svg+xml</dc:format>
        <dc:type
           rdf:resource="http://purl.org/dc/dcmitype/StillImage" />
        <dc:title></dc:title>
      </cc:Work>
    </rdf:RDF>
  </metadata>
  <g
     sodipodi:insensitive="true"
     id="layer1"
     inkscape:groupmode="layer"
     inkscape:label="Reference"
     style="display:none">
    <rect
       ry="0"
       y="0.77758986"
       x="0.63033724"
       height="658.99414"
       width="2001.2635"
       id="rect833"
       style="fill:none;stroke:#000000;stroke-width:1.42288;stroke-miterlimit:4;stroke-dasharray:none" />
    <path
       sodipodi:nodetypes="cc"
       CoordRef="-1000,0,1000,-660"
       id="path837"
       d="M 0.52379179,0.75567564 1999.4017,659.79361"
       style="fill:none;stroke:#000000;stroke-width:1.88129px;stroke-linecap:butt;stroke-linejoin:miter;stroke-opacity:1" />
  </g>
  <g
     inkscape:label="EW_m0010"
     id="layer2"
     inkscape:groupmode="layer"
     style="display:inline">
    <path
       style="display:inline;fill:none;stroke:#00ffff;stroke-width:1;stroke-linecap:butt;stroke-linejoin:miter;stroke-miterlimit:4;stroke-dasharray:none;stroke-opacity:1"
       d="M 1.4814526,132.6558 C 1.3462449,42.341563 1.2110372,-47.972673 1.0758295,-138.28691 668.03712,-138.41827 1334.9984,-138.54964 2001.9597,-138.681 c -0.074,90.300567 -0.1485,180.601133 -0.2227,270.9017 -666.7518,0.14503 -1333.5037,0.29007 -2000.2555474,0.4351 z"
       id="path848"
       sodipodi:nodetypes="ccccc"
       label="Air" />
    <path
       style="display:inline;fill:none;stroke:#000080;stroke-width:1;stroke-linecap:butt;stroke-linejoin:miter;stroke-miterlimit:4;stroke-dasharray:none;stroke-opacity:1"
       d="M 2001.982,-4.7247309e-6 C 2002.0095,33.333329 2002.0369,66.666663 2002.0644,99.999997 c -377.919,-15.875 -755.838,-31.75 -1133.75706,-47.625 7e-4,-33.333334 0.002,-52.3750017247309 0.002,-52.3750017247309 377.89086,0 755.78176,0 1133.67266,0 z"
       id="path842"
       label="ContCrust"
       sodipodi:nodetypes="ccccc" />
    <path
       style="display:inline;fill:none;stroke:#ff00ff;stroke-width:1;stroke-linecap:butt;stroke-linejoin:miter;stroke-miterlimit:4;stroke-dasharray:none;stroke-opacity:1"
       d="m 0.63033724,0.77758985 c 667.08785276,0 1334.17566276,0 2001.26356276,0 0,219.66471015 0,439.32941015 0,658.99412015 -667.0879,0 -1334.17571,0 -2001.26356276,0 0,-219.66471 0,-439.32941 0,-658.99412015 z"
       id="path846"
       label="Mantle"
       sodipodi:nodetypes="ccccc" />
    <path
       sodipodi:nodetypes="ccccc"
       id="path854"
       d="m 1005.6393,39.999996 c 331.6048,0 663.2097,0 994.8145,0 0.4938,20 0.9875,39.999999 1.4813,59.999999 -331.9978,0.143205 -663.9955,0.286415 -995.9933,0.429615 -0.1008,-20.143205 -0.2017,-40.286409 -0.3025,-60.429614 z"
       style="display:inline;fill:none;stroke:#0000ff;stroke-width:1;stroke-linecap:butt;stroke-linejoin:miter;stroke-miterlimit:4;stroke-dasharray:none;stroke-opacity:1"
       label="ContMantle" />
    <path
       label="SimpleSlab"
       sodipodi:nodetypes="cccccccccccccc"
       id="path853"
       d="m 368.40133,0.77758985 c 49.68297,-0.0635604 99.36594,-0.12712073 149.04891,-0.19068109 62.01503,-0.079337 124.03005,-0.158674 186.04508,-0.238011 50.983,-0.0652235 101.96599,-0.13044703 152.94899,-0.19567054 C 896.3697,0.10214991 936.2951,0.05107259 976.22049,-4.7247309e-6 991.99113,1.8022289 1012.9301,13.410093 1028.6662,34.816719 c 13.1252,21.591182 26.2505,43.182365 39.3757,64.773547 31.9351,53.635574 63.8702,107.271144 95.8053,160.906714 -18.1858,11.71861 -37.9939,25.64624 -56.1797,37.36485 -37.3164,-62.27672 -74.9123,-125.96837 -112.22868,-188.24508 -6.3461,-9.43947 -20.13744,-31.775001 -30.17945,-36.21413 -5.5496,-2.561304 -25.42931,-3.086986 -85.39083,-3.592479 -170.30286,-0.04168 -340.60573,-0.08335 -510.90859,-0.125028 -0.18621,-22.969174 -0.37241,-45.938349 -0.55862,-68.90752315 z"
       style="fill:none;stroke:#ff5555;stroke-width:1;stroke-linecap:butt;stroke-linejoin:miter;stroke-miterlimit:4;stroke-dasharray:none;stroke-opacity:1" />
  </g>
  <g
     inkscape:groupmode="layer"
     id="layer3"
     inkscape:label="EW_0010"
     style="display:none">
    <path
       sodipodi:nodetypes="ccccc"
       label="Mantle"
       id="path851"
       d="m 0.63033724,0.77758985 c 667.08785276,0 1334.17566276,0 2001.26356276,0 0,219.66471015 0,439.32941015 0,658.99412015 -667.0879,0 -1334.17571,0 -2001.26356276,0 0,-219.66471 0,-439.32941 0,-658.99412015 z"
       style="fill:none;stroke:#ff00ff;stroke-width:1;stroke-linecap:butt;stroke-linejoin:miter;stroke-miterlimit:4;stroke-dasharray:none;stroke-opacity:1" />
    <path
       label="Air"
       sodipodi:nodetypes="ccccc"
       id="path857"
       d="M 1.4814526,132.6558 C 1.3462449,42.341563 1.2110372,-47.972673 1.0758295,-138.28691 668.03712,-138.41827 1334.9984,-138.54964 2001.9597,-138.681 c -0.074,90.300567 -0.1485,180.601133 -0.2227,270.9017 -666.7518,0.14503 -1333.5037,0.29007 -2000.2555474,0.4351 z"
       style="fill:none;stroke:#00ffff;stroke-width:1;stroke-linecap:butt;stroke-linejoin:miter;stroke-miterlimit:4;stroke-dasharray:none;stroke-opacity:1" />
    <path
       label="Air"
       sodipodi:nodetypes="ccccc"
       id="path849"
       d="M 1.4814526,132.6558 C 1.3462449,42.341563 1.2110372,-47.972673 1.0758295,-138.28691 668.03712,-138.41827 1334.9984,-138.54964 2001.9597,-138.681 c -0.074,90.300567 -0.1485,180.601133 -0.2227,270.9017 -666.7518,0.14503 -1333.5037,0.29007 -2000.2555474,0.4351 z"
       style="display:inline;fill:none;stroke:#00ffff;stroke-width:1;stroke-linecap:butt;stroke-linejoin:miter;stroke-miterlimit:4;stroke-dasharray:none;stroke-opacity:1" />
    <path
       sodipodi:nodetypes="ccccc"
       label="Mantle"
       id="path858"
       d="m 0.63033724,0.77758985 c 667.08785276,0 1334.17566276,0 2001.26356276,0 0,219.66471015 0,439.32941015 0,658.99412015 -667.0879,0 -1334.17571,0 -2001.26356276,0 0,-219.66471 0,-439.32941 0,-658.99412015 z"
       style="display:inline;fill:none;stroke:#ff00ff;stroke-width:1;stroke-linecap:butt;stroke-linejoin:miter;stroke-miterlimit:4;stroke-dasharray:none;stroke-opacity:1" />
    <path
       sodipodi:nodetypes="ccccc"
       label="ContCrust"
       id="path850"
       d="M 2001.982,-4.7247309e-6 C 2002.0095,33.333329 2002.0369,66.666663 2002.0644,99.999997 c -377.919,-15.875 -755.838,-31.75 -1133.75706,-47.625 7e-4,-33.333334 0.002,-52.3750017247309 0.002,-52.3750017247309 377.89086,0 755.78176,0 1133.67266,0 z"
       style="display:inline;fill:none;stroke:#000080;stroke-width:1;stroke-linecap:butt;stroke-linejoin:miter;stroke-miterlimit:4;stroke-dasharray:none;stroke-opacity:1" />
    <path
       label="ContMantle"
       style="display:inline;fill:none;stroke:#0000ff;stroke-width:1;stroke-linecap:butt;stroke-linejoin:miter;stroke-miterlimit:4;stroke-dasharray:none;stroke-opacity:1"
       d="m 1005.6393,39.999996 c 331.6048,0 663.2097,0 994.8145,0 0.4938,20 0.9875,39.999999 1.4813,59.999999 -331.9978,0.143205 -663.9955,0.286415 -995.9933,0.429615 -0.1008,-20.143205 -0.2017,-40.286409 -0.3025,-60.429614 z"
       id="path861"
       sodipodi:nodetypes="ccccc" />
    <path
       style="display:inline;fill:none;stroke:#ff5555;stroke-width:1;stroke-linecap:butt;stroke-linejoin:miter;stroke-miterlimit:4;stroke-dasharray:none;stroke-opacity:1"
       d="m 368.40133,0.77758985 c 49.68297,-0.0635604 99.36594,-0.12712073 149.04891,-0.19068109 62.01503,-0.079337 124.03005,-0.158674 186.04508,-0.238011 50.983,-0.0652235 101.96599,-0.13044703 152.94899,-0.19567054 C 896.3697,0.10214991 936.2951,0.05107259 976.22049,-4.7247309e-6 991.99113,1.8022289 1012.9301,13.410093 1028.6662,34.816719 c 13.1252,21.591182 26.2505,43.182365 39.3757,64.773547 31.9351,53.635574 63.8702,107.271144 95.8053,160.906714 -18.1858,11.71861 -37.9939,25.64624 -56.1797,37.36485 -37.3164,-62.27672 -74.9123,-125.96837 -112.22868,-188.24508 -6.3461,-9.43947 -20.13744,-31.775001 -30.17945,-36.21413 -5.5496,-2.561304 -25.42931,-3.086986 -85.39083,-3.592479 -170.30286,-0.04168 -340.60573,-0.08335 -510.90859,-0.125028 -0.18621,-22.969174 -0.37241,-45.938349 -0.55862,-68.90752315 z"
       id="path864"
       sodipodi:nodetypes="cccccccccccccc"
       label="SimpleSlab" />
  </g>
</svg>
