<?xml version="1.0" encoding="UTF-8" standalone="no"?>
<!-- Created with Inkscape (http://www.inkscape.org/) -->

<svg
   xmlns:dc="http://purl.org/dc/elements/1.1/"
   xmlns:cc="http://creativecommons.org/ns#"
   xmlns:rdf="http://www.w3.org/1999/02/22-rdf-syntax-ns#"
   xmlns:svg="http://www.w3.org/2000/svg"
   xmlns="http://www.w3.org/2000/svg"
   xmlns:sodipodi="http://sodipodi.sourceforge.net/DTD/sodipodi-0.dtd"
   xmlns:inkscape="http://www.inkscape.org/namespaces/inkscape"
   width="4000"
   height="5000"
   id="svg2"
   version="1.1"
   inkscape:version="0.92.2 5c3e80d, 2017-08-06"
   sodipodi:docname="TemperatureExample.HZ.svg">
  <defs
     id="defs4" />
  <sodipodi:namedview
     id="base"
     pagecolor="#ffffff"
     bordercolor="#666666"
     borderopacity="1.0"
     inkscape:pageopacity="0.0"
     inkscape:pageshadow="2"
     inkscape:zoom="0.3535534"
     inkscape:cx="2159.1703"
     inkscape:cy="1362.0749"
     inkscape:document-units="px"
     inkscape:current-layer="g859"
     showgrid="false"
     showguides="false"
     inkscape:guide-bbox="true"
     inkscape:window-width="2300"
     inkscape:window-height="1358"
     inkscape:window-x="2605"
     inkscape:window-y="0"
     inkscape:window-maximized="0">
    <sodipodi:guide
       orientation="1,0"
       position="1500,-70.3125"
       id="guide3092"
       inkscape:locked="false" />
    <sodipodi:guide
       orientation="0,1"
       position="-16,4000"
       id="guide3118"
       inkscape:locked="false" />
    <sodipodi:guide
       orientation="1,0"
       position="0,920.3125"
       id="guide3041"
       inkscape:locked="false" />
    <sodipodi:guide
       orientation="1,0"
       position="4000.0147,1861.768"
       id="guide3043"
       inkscape:locked="false" />
    <sodipodi:guide
       orientation="1,0"
       position="2500,1531.25"
       id="guide3045"
       inkscape:locked="false" />
    <sodipodi:guide
       orientation="0,1"
       position="2052.5391,-0.00390625"
       id="guide3047"
       inkscape:locked="false" />
    <sodipodi:guide
       orientation="1,0"
       position="4000.0147,4288.6026"
       id="guide3068"
       inkscape:locked="false" />
    <sodipodi:guide
       orientation="0,1"
       position="2126.9772,3501.5928"
       id="guide3112"
       inkscape:locked="false" />
    <sodipodi:guide
       orientation="0,1"
       position="2187.6116,298.48745"
       id="guide3888"
       inkscape:locked="false" />
    <sodipodi:guide
       orientation="1,0"
       position="1750,3501.5928"
       id="guide3049"
       inkscape:locked="false" />
  </sodipodi:namedview>
  <metadata
     id="metadata7">
    <rdf:RDF>
      <cc:Work
         rdf:about="">
        <dc:format>image/svg+xml</dc:format>
        <dc:type
           rdf:resource="http://purl.org/dc/dcmitype/StillImage" />
        <dc:title />
      </cc:Work>
    </rdf:RDF>
  </metadata>
  <g
     style="display:none"
     id="g3112"
     inkscape:groupmode="layer"
     inkscape:label="m760">
    <path
       label="OuterOcean_oc"
       inkscape:connector-curvature="0"
       id="path4255"
       d="M -50.680906,-9.9083472 H 4056.328 V 5032.4123 H -50.680906"
       style="display:inline;fill:#1034de;fill-opacity:1;stroke:#000000;stroke-width:1.85781491px;stroke-linecap:butt;stroke-linejoin:miter;stroke-opacity:1" />
  </g>
  <g
     style="display:none"
     id="g3831"
     inkscape:groupmode="layer"
     inkscape:label="m030">
    <path
       style="display:inline;fill:#1034de;fill-opacity:1;stroke:#000000;stroke-width:1.85781491px;stroke-linecap:butt;stroke-linejoin:miter;stroke-opacity:1"
       d="M -50.680906,-9.9083472 H 4056.328 V 5032.4123 H -50.680906"
       id="path4252"
       inkscape:connector-curvature="0"
       label="OuterOcean_oc" />
    <path
       style="display:inline;fill:#ab5400;fill-opacity:1;fill-rule:evenodd;stroke:#000000;stroke-width:1.17853034px;stroke-linecap:butt;stroke-linejoin:miter;stroke-opacity:1"
       d="m 1389.9273,2014.8643 c -529.33011,759.0551 -1197.19893,254.5033 -456.13667,791.8875 741.06217,537.3841 1764.54917,1228.4914 1462.27437,409.7554 -295.901,-801.4724 223.0972,-1436.7032 635.1962,-772.4898 326.1912,525.749 787.3786,-866.532 -317.598,-1014.3127 C 1608.6865,1281.9241 1317.5549,905.75532 1297.705,1268.4895 c -19.8499,362.7343 171.6219,652.3326 92.2223,746.3748 z"
       id="path4236"
       inkscape:connector-curvature="0"
       label="Continent01_cc"
       sodipodi:nodetypes="csssssc" />
    <path
       style="display:inline;fill:#007ade;fill-opacity:1;fill-rule:evenodd;stroke:#000000;stroke-width:0.47283566px;stroke-linecap:butt;stroke-linejoin:miter;stroke-opacity:1"
       d="m 1635.0174,1811.8366 c 264.7943,166.0229 265.6501,43.1443 507.4215,198.943 241.7713,155.7987 817.844,117.4483 668.6024,-189.3554 -149.2416,-306.8036 -398.1714,-360.1215 -696.6546,-281.0236 -246.0257,74.9974 -634.2941,162.7948 -479.3693,271.436 z"
       id="path4238"
       inkscape:connector-curvature="0"
       sodipodi:nodetypes="csscc"
       label="InnerOcean_oc" />
  </g>
  <g
     inkscape:label="m015"
     inkscape:groupmode="layer"
     id="g3070"
     style="display:inline">
    <path
       label="OuterOcean_oc"
       inkscape:connector-curvature="0"
       id="path4202"
       d="M -50.680906,-9.9083472 H 4056.328 V 5032.4123 H -50.680906"
       style="display:inline;fill:#1034de;fill-opacity:1;stroke:#000000;stroke-width:1.85781491px;stroke-linecap:butt;stroke-linejoin:miter;stroke-opacity:1" />
    <path
       sodipodi:nodetypes="csssssc"
       label="Continent01_cc"
       inkscape:connector-curvature="0"
       id="path4204"
       d="m 1389.9273,2014.8643 c -529.33011,759.0551 -1197.19893,254.5033 -456.13667,791.8875 741.06217,537.3841 1764.54917,1228.4914 1462.27437,409.7554 -295.901,-801.4724 223.0972,-1436.7032 635.1962,-772.4898 326.1912,525.749 787.3786,-866.532 -317.598,-1014.3127 C 1608.6865,1281.9241 1317.5549,905.75532 1297.705,1268.4895 c -19.8499,362.7343 171.6219,652.3326 92.2223,746.3748 z"
       style="display:inline;fill:#ab5400;fill-opacity:1;fill-rule:evenodd;stroke:#000000;stroke-width:1.17853034px;stroke-linecap:butt;stroke-linejoin:miter;stroke-opacity:1" />
    <path
       label="InnerOcean_oc"
       sodipodi:nodetypes="csscc"
       inkscape:connector-curvature="0"
       id="path4206"
       d="m 1635.0174,1811.8366 c 264.7943,166.0229 265.6501,43.1443 507.4215,198.943 241.7713,155.7987 817.844,117.4483 668.6024,-189.3554 -149.2416,-306.8036 -398.1714,-360.1215 -696.6546,-281.0236 -246.0257,74.9974 -634.2941,162.7948 -479.3693,271.436 z"
       style="display:inline;fill:#007ade;fill-opacity:1;fill-rule:evenodd;stroke:#000000;stroke-width:0.47283566px;stroke-linecap:butt;stroke-linejoin:miter;stroke-opacity:1" />
    <path
       sodipodi:nodetypes="csssssc"
       label="OceanTransition_oc"
       inkscape:connector-curvature="0"
       id="path876"
       d="m 299.25702,2175.5188 c -516.13897,935.7937 -429.9476,1652.9648 314.43231,2112.9501 442.12797,273.2105 3086.47147,1079.9055 2600.51047,163.787 C 2962.6167,3977.9793 3175.3423,3359.9794 3371.2723,3356.1982 4112.4245,3341.8949 4479.3202,782.47461 3164.7362,394.62672 1722.0751,-31.008356 834.42051,128.01391 741.76201,876.28431 689.04399,1302.0125 380.92066,2019.231 299.25702,2175.5188 Z"
       style="display:inline;fill:#0000ff;fill-opacity:1;fill-rule:evenodd;stroke:#000000;stroke-width:1.42728293px;stroke-linecap:butt;stroke-linejoin:miter;stroke-opacity:1" />
  </g>
  <g
     style="display:inline"
     id="g859"
     inkscape:groupmode="layer"
     inkscape:label="m010">
    <path
       sodipodi:nodetypes="csssssc"
       label="OceanTransition_oc"
       inkscape:connector-curvature="0"
       id="path850"
       d="m 1110.0442,1945.6497 c -812.11749,624.692 -1159.691547,541.2488 -734.09246,1064.3724 246.66592,303.1886 1954.18316,1745.0897 2466.67736,784.6395 200.2175,-375.2218 -321.849,-1310.0997 356.5468,-658.3197 538.1912,517.076 999.4095,-1996.8867 -347.5299,-2174.67629 -1346.9395,-177.7894 -1797.8219,-366.34444 -1822.0184,70.04779 -24.1966,436.3924 202.6587,814.9397 80.4166,913.9363 z"
       style="display:inline;fill:#0000ff;fill-opacity:1;fill-rule:evenodd;stroke:#000000;stroke-width:1.42719257px;stroke-linecap:butt;stroke-linejoin:miter;stroke-opacity:1" />
    <path
       style="display:inline;fill:#ab5400;fill-opacity:1;fill-rule:evenodd;stroke:#000000;stroke-width:1.17853034px;stroke-linecap:butt;stroke-linejoin:miter;stroke-opacity:1"
       d="m 1389.9273,2014.8643 c -529.33011,759.0551 -1197.19893,254.5033 -456.13667,791.8875 741.06217,537.3841 1764.54917,1228.4914 1462.27437,409.7554 -295.901,-801.4724 223.0972,-1436.7032 635.1962,-772.4898 326.1912,525.749 787.3786,-866.532 -317.598,-1014.3127 C 1608.6865,1281.9241 1317.5549,905.75532 1297.705,1268.4895 c -19.8499,362.7343 171.6219,652.3326 92.2223,746.3748 z"
       id="path854"
       inkscape:connector-curvature="0"
       label="Continent01_cc"
       sodipodi:nodetypes="csssssc" />
    <path
       style="display:inline;fill:#007ade;fill-opacity:1;fill-rule:evenodd;stroke:#000000;stroke-width:0.47283566px;stroke-linecap:butt;stroke-linejoin:miter;stroke-opacity:1"
       d="m 1635.0174,1811.8366 c 264.7943,166.0229 265.6501,43.1443 507.4215,198.943 241.7713,155.7987 817.844,117.4483 668.6024,-189.3554 -149.2416,-306.8036 -398.1714,-360.1215 -696.6546,-281.0236 -246.0257,74.9974 -634.2941,162.7948 -479.3693,271.436 z"
       id="path857"
       inkscape:connector-curvature="0"
       sodipodi:nodetypes="csscc"
       label="InnerOcean_oc" />
  </g>
  <g
     inkscape:label="m004"
     inkscape:groupmode="layer"
     id="g3071"
     style="display:inline">
    <path
       style="display:inline;fill:#0000ff;fill-opacity:1;fill-rule:evenodd;stroke:#000000;stroke-width:1.32717204px;stroke-linecap:butt;stroke-linejoin:miter;stroke-opacity:1"
       d="m 1308.8995,1972.5806 c -595.97991,854.9508 -1347.94253,286.6562 -513.57043,891.9312 834.37203,605.2749 2099.11743,1418.0367 1758.78213,495.8653 -333.1591,-902.7268 51.7911,-1244.2508 443.2709,-652.5758 383.9638,580.3153 1046.038,-1227.856 -198.0702,-1394.3067 -1244.1083,-166.4505 -1571.8974,-590.14281 -1594.2467,-181.5824 -22.3493,408.5605 193.2315,734.7454 103.8343,840.6684 z"
       id="path845"
       inkscape:connector-curvature="0"
       label="OceanTransition_oc"
       sodipodi:nodetypes="csssssc" />
    <path
       style="fill:#ffffff;fill-opacity:1;fill-rule:evenodd;stroke:#000000;stroke-width:0.47283566px;stroke-linecap:butt;stroke-linejoin:miter;stroke-opacity:1"
       d="m 1635.0174,1811.8366 c 264.7943,166.0229 265.6501,43.1443 507.4215,198.943 241.7713,155.7987 817.844,117.4483 668.6024,-189.3554 -149.2416,-306.8036 -398.1714,-360.1215 -696.6546,-281.0236 -246.0257,74.9974 -634.2941,162.7948 -479.3693,271.436 z"
       id="path4198"
       inkscape:connector-curvature="0"
       sodipodi:nodetypes="csscc"
       label="Air" />
    <path
       sodipodi:nodetypes="csssssc"
       label="Continent01_cc"
       inkscape:connector-curvature="0"
       id="path26"
       d="m 1389.9273,2014.8643 c -529.33011,759.0551 -1197.19893,254.5033 -456.13667,791.8875 741.06217,537.3841 1764.54917,1228.4914 1462.27437,409.7554 -295.901,-801.4724 223.0972,-1436.7032 635.1962,-772.4898 326.1912,525.749 787.3786,-866.532 -317.598,-1014.3127 C 1608.6865,1281.9241 1317.5549,905.75532 1297.705,1268.4895 c -19.8499,362.7343 171.6219,652.3326 92.2223,746.3748 z"
       style="display:inline;fill:#ab5400;fill-opacity:1;fill-rule:evenodd;stroke:#000000;stroke-width:1.17853034px;stroke-linecap:butt;stroke-linejoin:miter;stroke-opacity:1" />
    <path
       label="InnerOcean_oc"
       sodipodi:nodetypes="csscc"
       inkscape:connector-curvature="0"
       id="path28"
       d="m 1635.0174,1811.8366 c 264.7943,166.0229 265.6501,43.1443 507.4215,198.943 241.7713,155.7987 817.844,117.4483 668.6024,-189.3554 -149.2416,-306.8036 -398.1714,-360.1215 -696.6546,-281.0236 -246.0257,74.9974 -634.2941,162.7948 -479.3693,271.436 z"
       style="display:inline;fill:#007ade;fill-opacity:1;fill-rule:evenodd;stroke:#000000;stroke-width:0.47283566px;stroke-linecap:butt;stroke-linejoin:miter;stroke-opacity:1" />
    <path
       style="display:inline;fill:#ffffff;fill-opacity:1;fill-rule:evenodd;stroke:#000000;stroke-width:0.147736px;stroke-linecap:butt;stroke-linejoin:miter;stroke-opacity:1"
       d="m 2082.9334,1790.0835 c 193.3648,28.5301 209.1502,-52.3133 225.7421,58.3923 13.8584,92.4675 170.3232,20.6074 121.792,-71.4974 -48.5311,-92.1049 -94.5882,-92.1279 -191.6505,-68.3821 -80.0038,22.5148 -214.0164,56.864 -155.8836,81.4872 z"
       id="path874"
       inkscape:connector-curvature="0"
       sodipodi:nodetypes="csscc"
       label="Air" />
  </g>
  <g
     style="display:none"
     id="g869"
     inkscape:groupmode="layer"
     inkscape:label="m002">
    <path
       sodipodi:nodetypes="csssssc"
       label="OceanTransition_oc"
       inkscape:connector-curvature="0"
       id="path861"
       d="m 1335.8568,1996.7725 c -571.77216,802.6333 -1293.191183,269.1148 -492.71003,837.3507 800.48103,568.236 2013.85443,1331.2619 1687.34303,465.5215 -319.6266,-847.4856 63.8295,-1340.6446 439.408,-785.1763 368.3678,544.8037 989.4074,-980.185 -204.167,-1136.4499 C 1572.1563,1221.7537 1257.6816,823.98863 1236.24,1207.5478 c -21.4415,383.5591 185.3827,689.7836 99.6168,789.2247 z"
       style="display:inline;fill:#0000ff;fill-opacity:1;fill-rule:evenodd;stroke:#000000;stroke-width:1.25953698px;stroke-linecap:butt;stroke-linejoin:miter;stroke-opacity:1" />
    <path
       style="display:inline;fill:#ab5400;fill-opacity:1;fill-rule:evenodd;stroke:#000000;stroke-width:1.17853034px;stroke-linecap:butt;stroke-linejoin:miter;stroke-opacity:1"
       d="m 1389.9273,2014.8643 c -529.33011,759.0551 -1197.19893,254.5033 -456.13667,791.8875 741.06217,537.3841 1764.54917,1228.4914 1462.27437,409.7554 -295.901,-801.4724 223.0972,-1436.7032 635.1962,-772.4898 326.1912,525.749 787.3786,-866.532 -317.598,-1014.3127 C 1608.6865,1281.9241 1317.5549,905.75532 1297.705,1268.4895 c -19.8499,362.7343 171.6219,652.3326 92.2223,746.3748 z"
       id="path865"
       inkscape:connector-curvature="0"
       label="Continent01_cc"
       sodipodi:nodetypes="csssssc" />
    <path
       style="display:inline;fill:#007ade;fill-opacity:1;fill-rule:evenodd;stroke:#000000;stroke-width:0.47283566px;stroke-linecap:butt;stroke-linejoin:miter;stroke-opacity:1"
       d="m 1635.0174,1811.8366 c 264.7943,166.0229 265.6501,43.1443 507.4215,198.943 241.7713,155.7987 817.844,117.4483 668.6024,-189.3554 -149.2416,-306.8036 -398.1714,-360.1215 -696.6546,-281.0236 -246.0257,74.9974 -634.2941,162.7948 -479.3693,271.436 z"
       id="path867"
       inkscape:connector-curvature="0"
       sodipodi:nodetypes="csscc"
       label="InnerOcean_oc" />
    <path
       label="Air"
       sodipodi:nodetypes="csscc"
       inkscape:connector-curvature="0"
       id="path863"
       d="m 1802.911,1808.9773 c 423.2257,60.5843 457.776,-111.0885 494.0913,123.9973 30.3326,196.357 372.7935,43.7604 266.5714,-151.8263 -106.2221,-195.5867 -207.0293,-195.6356 -419.4736,-145.2109 -175.1078,47.8107 -468.4268,120.752 -341.1891,173.0399 z"
       style="fill:#ffffff;fill-opacity:1;fill-rule:evenodd;stroke:#000000;stroke-width:0.31850195px;stroke-linecap:butt;stroke-linejoin:miter;stroke-opacity:1" />
  </g>
  <g
     style="display:none"
     id="g3046"
     inkscape:groupmode="layer"
     inkscape:label="p000">
    <path
       sodipodi:nodetypes="csssssc"
       label="OceanTransition_oc"
       inkscape:connector-curvature="0"
       id="path870"
       d="m 1389.9273,2014.8643 c -529.33011,759.0551 -1197.19893,254.5033 -456.13667,791.8875 741.06217,537.3841 1764.54917,1228.4914 1462.27437,409.7554 -295.901,-801.4724 223.0972,-1436.7032 635.1962,-772.4898 326.1912,525.749 787.3786,-866.532 -317.598,-1014.3127 C 1608.6865,1281.9241 1317.5549,905.75532 1297.705,1268.4895 c -19.8499,362.7343 171.6219,652.3326 92.2223,746.3748 z"
       style="display:inline;fill:#0000ff;fill-opacity:1;fill-rule:evenodd;stroke:#000000;stroke-width:1.17853034px;stroke-linecap:butt;stroke-linejoin:miter;stroke-opacity:1" />
    <path
       style="fill:#ab5400;fill-opacity:1;fill-rule:evenodd;stroke:#000000;stroke-width:1.17853034px;stroke-linecap:butt;stroke-linejoin:miter;stroke-opacity:1"
       d="m 1389.9273,2014.8643 c -529.33011,759.0551 -1197.19893,254.5033 -456.13667,791.8875 741.06217,537.3841 1764.54917,1228.4914 1462.27437,409.7554 -295.901,-801.4724 223.0972,-1436.7032 635.1962,-772.4898 326.1912,525.749 787.3786,-866.532 -317.598,-1014.3127 C 1608.6865,1281.9241 1317.5549,905.75532 1297.705,1268.4895 c -19.8499,362.7343 171.6219,652.3326 92.2223,746.3748 z"
       id="path4196"
       inkscape:connector-curvature="0"
       label="Continent01_cc"
       sodipodi:nodetypes="csssssc" />
    <path
       style="fill:#ffffff;fill-opacity:1;fill-rule:evenodd;stroke:#000000;stroke-width:0.47283566px;stroke-linecap:butt;stroke-linejoin:miter;stroke-opacity:1"
       d="m 1635.0174,1811.8366 c 264.7943,166.0229 265.6501,43.1443 507.4215,198.943 241.7713,155.7987 817.844,117.4483 668.6024,-189.3554 -149.2416,-306.8036 -398.1714,-360.1215 -696.6546,-281.0236 -246.0257,74.9974 -634.2941,162.7948 -479.3693,271.436 z"
       id="path32"
       inkscape:connector-curvature="0"
       sodipodi:nodetypes="csscc"
       label="Air" />
    <path
       inkscape:connector-curvature="0"
       id="path856"
       d="m 1403.8335,2861.7091 c 182.1177,70.7107 519.4969,135.7645 632.634,11.3138 126.3439,-188.8127 -263.4059,-544.5847 -523.7495,-407.7955 -175.4928,94.5711 -335.4316,301.7745 -108.8845,396.4817 z"
       style="display:inline;fill:#ff0000;fill-rule:evenodd;stroke:#000000;stroke-width:1px;stroke-linecap:butt;stroke-linejoin:miter;stroke-opacity:1"
       sodipodi:nodetypes="cccc"
       label="Continent02_cc" />
  </g>
  <g
     inkscape:groupmode="layer"
     id="layer2"
     inkscape:label="Reference"
     style="display:none">
    <path
       style="fill:none;stroke:#000000;stroke-width:1px;stroke-linecap:butt;stroke-linejoin:miter;stroke-opacity:1"
       d="M 0,4000 3000,0"
       id="path3017"
       inkscape:connector-curvature="0"
       CoordRef="0,-4000 3000,0" />
  </g>
  <g
     inkscape:label="p002"
     inkscape:groupmode="layer"
     id="g848"
     style="display:none">
    <path
       sodipodi:nodetypes="cccc"
       style="display:inline;fill:#ff0000;fill-rule:evenodd;stroke:#000000;stroke-width:1px;stroke-linecap:butt;stroke-linejoin:miter;stroke-opacity:1"
       d="m 1528.2843,2813.6258 c 91.608,59.397 324.3354,42.4264 380.904,-36.7694 64.1185,-101.1315 -136.1267,-292.8547 -263.5342,-229.6046 -175.4928,94.5711 -213.8093,202.7795 -117.3698,266.374 z"
       id="path859"
       inkscape:connector-curvature="0"
       label="Continent02_cc" />
  </g>
  <g
     style="display:none"
     id="g877"
     inkscape:groupmode="layer"
     inkscape:label="p004">
    <path
       inkscape:connector-curvature="0"
       id="path875"
       d="m 1688.2843,2753.6258 c 19.1583,12.6913 64.0965,19.1836 69.1847,-26.7694 -0.4881,-34.563 -38.6709,-69.905 -71.8149,-53.6046 -36.6682,22.5622 -13.5893,68.0347 2.6302,80.374 z"
       style="display:inline;fill:#ff0000;fill-rule:evenodd;stroke:#000000;stroke-width:1px;stroke-linecap:butt;stroke-linejoin:miter;stroke-opacity:1"
       sodipodi:nodetypes="cccc"
       label="Continent02_cc" />
  </g>
  <g
     inkscape:groupmode="layer"
     id="g44"
     inkscape:label="Reference"
     style="display:none">
    <path
       style="fill:none;stroke:#000000;stroke-width:1px;stroke-linecap:butt;stroke-linejoin:miter;stroke-opacity:1"
       d="M 0,4000 3000,0"
       id="path42"
       inkscape:connector-curvature="0"
       CoordRef="0,-4000 3000,0" />
  </g>
</svg>
